30-Day Mortality Condition of Myocardia Infarction Patients Admitted to All Seven Care Units
…
study_subjects %>%
  collect() %>%
  mutate(ethnic_group = case_when(
    str_detect(ethnicity, "^ASIAN") ~ "ASIAN",
    str_detect(ethnicity, "^BLACK") ~ "BLACK",
    str_detect(ethnicity, "^HISPANIC") ~ "HISPANIC",
    str_detect(ethnicity, "^WHITE") ~ "WHITE",
    ethnicity %in% unknown_ethnicity ~ NA_character_,
    TRUE ~ NA_character_
  )) %>%
  select(subject_id, gender, ethnic_group) %>%
  print() -> study_subjects

## # A tibble: 46,811 x 3
##    subject_id gender ethnic_group
##         <int> <chr>  <chr>       
##  1          2 M      ASIAN       
##  2          3 M      WHITE       
##  3          4 F      WHITE       
##  4          5 M      ASIAN       
##  5          6 F      WHITE       
##  6          7 F      WHITE       
##  7          8 M      WHITE       
##  8          9 M      <NA>        
##  9         10 F      BLACK       
## 10         11 F      WHITE       
## #  with 46,801 more rows
…
most <- function(x) {
  if (all(is.na(x))) return(NA_character_)
  y <- table(x, useNA = "no")
  if (length(which(y == max(y))) > 1) return(NA_character_)
  return(names(y)[which.max(y)])
}

study_subjects %>%
  group_by(subject_id) %>%
  summarize(ethnic_group = most(ethnic_group)) %>%
  ungroup() %>%
  mutate(ethnic_group = ifelse(is.na(ethnic_group), "UNKNOWN", ethnic_group)) %>%
  print() -> subject_ethnic_groups

## # A tibble: 46,520 x 2
##    subject_id ethnic_group
##         <int> <chr>       
##  1          2 ASIAN       
##  2          3 WHITE       
##  3          4 WHITE       
##  4          5 ASIAN       
##  5          6 WHITE       
##  6          7 WHITE       
##  7          8 WHITE       
##  8          9 UNKNOWN     
##  9         10 BLACK       
## 10         11 WHITE       
## #  with 46,510 more rows

study_subjects %>%
  select(subject_id, gender) %>%
  left_join(subject_ethnic_groups, by = "subject_id") %>%
  print() -> study_subjects

## # A tibble: 46,811 x 3
##    subject_id gender ethnic_group
##         <int> <chr>  <chr>       
##  1          2 M      ASIAN       
##  2          3 M      WHITE       
##  3          4 F      WHITE       
##  4          5 M      ASIAN       
##  5          6 F      WHITE       
##  6          7 F      WHITE       
##  7          8 M      WHITE       
##  8          9 M      UNKNOWN     
##  9         10 F      BLACK       
## 10         11 F      WHITE       
## #  with 46,801 more rows
…
