Biostat 203B Homework 2
…
SOLUTION

Import data first.

admission <- read_csv("/home/203bdata/mimic-iii/ADMISSIONS.csv",
                      col_types = cols(ROW_ID = col_integer(),
                                       SUBJECT_ID = col_integer(),
                                       HADM_ID = col_integer(),
                                       ADMITTIME = col_datetime(),
                                       DISCHTIME = col_datetime(),
                                       HOSPITAL_EXPIRE_FLAG = col_logical(),
                                       HAS_CHARTEVENTS_DATA = col_logical()))
admission

## # A tibble: 58,976 x 19
##    ROW_ID SUBJECT_ID HADM_ID ADMITTIME           DISCHTIME          
##     <int>      <int>   <int> <dttm>              <dttm>             
##  1     21         22  165315 2196-04-09 12:26:00 2196-04-10 15:54:00
##  2     22         23  152223 2153-09-03 07:15:00 2153-09-08 19:10:00
##  3     23         23  124321 2157-10-18 19:34:00 2157-10-25 14:00:00
##  4     24         24  161859 2139-06-06 16:14:00 2139-06-09 12:48:00
##  5     25         25  129635 2160-11-02 02:06:00 2160-11-05 14:55:00
##  6     26         26  197661 2126-05-06 15:16:00 2126-05-13 15:00:00
##  7     27         27  134931 2191-11-30 22:16:00 2191-12-03 14:45:00
##  8     28         28  162569 2177-09-01 07:15:00 2177-09-06 16:00:00
##  9     29         30  104557 2172-10-14 14:17:00 2172-10-19 14:37:00
## 10     30         31  128652 2108-08-22 23:27:00 2108-08-30 15:00:00
## #  with 58,966 more rows, and 14 more variables: DEATHTIME <dttm>,
## #   ADMISSION_TYPE <chr>, ADMISSION_LOCATION <chr>, DISCHARGE_LOCATION <chr>,
## #   INSURANCE <chr>, LANGUAGE <chr>, RELIGION <chr>, MARITAL_STATUS <chr>,
## #   ETHNICITY <chr>, EDREGTIME <dttm>, EDOUTTIME <dttm>, DIAGNOSIS <chr>,
## #   HOSPITAL_EXPIRE_FLAG <lgl>, HAS_CHARTEVENTS_DATA <lgl>
…
Link the data in ADMISSION.csv and PATIENTS.csv (https://mimic.physionet.org/mimictables/patients/) and summarize following variables using appropriate graphs:

gender

age at admission

SOLUTION

patient <- read_csv("/home/203bdata/mimic-iii/PATIENTS.csv",
                    col_types = cols(ROW_ID = col_integer(),
                                     SUBJECT_ID = col_integer(),
                                     DOB = col_datetime()))
patient

## # A tibble: 46,520 x 8
##    ROW_ID SUBJECT_ID GENDER DOB                 DOD                
##     <int>      <int> <chr>  <dttm>              <dttm>             
##  1    234        249 F      2075-03-13 00:00:00 NA                 
##  2    235        250 F      2164-12-27 00:00:00 2188-11-22 00:00:00
##  3    236        251 M      2090-03-15 00:00:00 NA                 
##  4    237        252 M      2078-03-06 00:00:00 NA                 
##  5    238        253 F      2089-11-26 00:00:00 NA                 
##  6    239        255 M      2109-08-05 00:00:00 NA                 
##  7    240        256 M      2086-07-31 00:00:00 NA                 
##  8    241        257 F      2031-04-03 00:00:00 2121-07-08 00:00:00
##  9    242        258 F      2124-09-19 00:00:00 NA                 
## 10    243        260 F      2105-03-23 00:00:00 NA                 
## #  with 46,510 more rows, and 3 more variables: DOD_HOSP <dttm>,
## #   DOD_SSN <dttm>, EXPIRE_FLAG <dbl>
…
SOLUTION

ICUSTAYS <- read_csv("/home/203bdata/mimic-iii/ICUSTAYS.csv",
                    col_types = cols(ROW_ID = col_integer(),
                                     SUBJECT_ID = col_integer(),
                                     HADM_ID = col_integer(),
                                     ICUSTAY_ID = col_integer(),
                                     FIRST_WARDID = col_integer(),
                                     LAST_WARDID = col_integer(),
                                     INTIME = col_datetime(),
                                     OUTTIME = col_datetime()))
ICUSTAYS

## # A tibble: 61,532 x 12
##    ROW_ID SUBJECT_ID HADM_ID ICUSTAY_ID DBSOURCE FIRST_CAREUNIT LAST_CAREUNIT
##     <int>      <int>   <int>      <int> <chr>    <chr>          <chr>        
##  1    365        268  110404     280836 carevue  MICU           MICU         
##  2    366        269  106296     206613 carevue  MICU           MICU         
##  3    367        270  188028     220345 carevue  CCU            CCU          
##  4    368        271  173727     249196 carevue  MICU           SICU         
##  5    369        272  164716     210407 carevue  CCU            CCU          
##  6    370        273  158689     241507 carevue  MICU           MICU         
##  7    371        274  130546     254851 carevue  MICU           MICU         
##  8    372        275  129886     219649 carevue  CCU            CCU          
##  9    373        276  135156     206327 carevue  CCU            CCU          
## 10    374        277  171601     272866 carevue  NICU           NICU         
## #  with 61,522 more rows, and 5 more variables: FIRST_WARDID <int>,
## #   LAST_WARDID <int>, INTIME <dttm>, OUTTIME <dttm>, LOS <dbl>
…
